ManUtdAnalysis
…
manutd <- read_csv("ManUtd 2023 Match Statistics.csv", show_col_types = FALSE)

New names:
• `Tackles Won` -> `Tackles Won...66`
• `Interception` -> `Interception...77`
• `Interception` -> `Interception...103`
• `Tackles Won` -> `Tackles Won...104`

manutd

# A tibble: 38 × 108
   Date      Opponent Venue Result Result (Win, Draw, L…¹ Result (Win versus P…²
   <chr>     <chr>    <chr> <chr>                   <dbl>                  <dbl>
 1 7/8/2022  Brighton Home  L                           0                      0
 2 13/8/2022 Brentfo… Away  L                           0                      0
 3 22/8/2022 Liverpo… Home  W                           2                      1
 4 27/8/2022 Southam… Away  W                           2                      1
 5 1/9/2022  Leicest… Away  W                           2                      1
 6 4/9/2022  Arsenal  Home  W                           2                      1
 7 2/10/2022 Manches… Away  L                           0                      0
 8 9/10/2022 Everton  Away  W                           2                      1
 9 16/10/20… Newcast… Home  D                           1                      0
10 19/10/20… Tottenh… Home  W                           2                      1
# ℹ 28 more rows
# ℹ abbreviated names: ¹​`Result (Win, Draw, Lost)`,
#   ²​`Result (Win versus Points Lost)`
# ℹ 102 more variables: Points <dbl>, Goals <dbl>, `Goals Against` <dbl>,
#   Shots <dbl>, `Shots on Target` <dbl>, `Shots on Target %` <dbl>,
#   `Goals Per Shot` <dbl>, `Goals Per Shot on Target` <dbl>,
#   `Average Shot Distance` <dbl>, `Free Kick Goals` <dbl>, …
…
